[
    {
        "idUtilisateur": 1,
        "nomUtilisateur": "Mark",
        "prenomUtilisateur": "Otto",
        "loginUtilisateur": "mdo",
        "emailUtilisateur": "mdo@hey.fr"
    },
    {
        "idUtilisateur": 2,
        "nomUtilisateur": "Jacob",
        "prenomUtilisateur": "Thorn",
        "loginUtilisateur": "fat",
        "emailUtilisateur": "mdo@hey.fr"
    },
    {
        "idUtilisateur": 3,
        "nomUtilisateur": "la",
        "prenomUtilisateur": "azea",
        "loginUtilisateur": "aaaa",
        "emailUtilisateur": "mdo@hey.fr"
    },
    {
        "idUtilisateur": 4,
        "nomUtilisateur": "sqdkldq",
        "prenomUtilisateur": "azhoeiha",
        "loginUtilisateur": "aaqsda",
        "emailUtilisateur": "mdo@hey.fr"
    },
    {
        "idUtilisateur": 5,
        "nomUtilisateur": "zaihea",
        "prenomUtilisateur": "jzeaa",
        "loginUtilisateur": "aalùsq",
        "emailUtilisateur": "mdo@hey.fr"
    }
]